id;return_code;response_code;description
1;S;RESP01;Código de RUPE valida
2;S;RESP02;Pagamento processado com sucesso
3;S;RESP03;Pagamento cancelado com sucesso
10;N;RESP10;Entidade inválida
11;N;RESP11;Referência inválida
12;N;RESP12;Montante inválido
13;N;RESP13;A referência ainda não está a pagamento
14;N;RESP14;A referência já se encontra expirada
15;N;RESP15;A referência já se encontra paga
16;N;RESP16;A referência encontra-se cancelada
17;N;RESP17;Data de pagamento diferente
18;N;RESP18;A referência não encontra-se paga
19;N;RESP19;A data de transação diferente da actual
20;N;RESP20;Tipo de erro inválido
21;N;RESP21;A Referência já encontra-se conciliada
22;N;RESP22;Origem de Pagamento inválida
23;S;RESP23;Referência atualizada com sucesso
24;N;RESP24;Referência não atualizada
25;S;RESP25;Referência criada com sucesso
26;N;RESP26;Referência não criada
27;N;RESP27;Referência deletada com sucesso
28;N;RESP28;Referência não Deletada
29;S;RESP29;Job Iniciado
30;S;RESP30;Job FInalizado
500;N;RESP500;Erro Interno do Servidor
