{
    "fluentMethods": true,
    "relationships": [],
    "fields": [
        {
            "fieldName": "messageCode",
            "fieldType": "Integer",
            "fieldValidateRules": [
                "required"
            ]
        },
        {
            "fieldName": "descriptionPt",
            "fieldType": "String",
            "fieldValidateRules": [
                "required",
                "maxlength"
            ],
            "fieldValidateRulesMaxlength": 60
        },
        {
            "fieldName": "descriptionEn",
            "fieldType": "String",
            "fieldValidateRules": [
                "required",
                "maxlength"
            ],
            "fieldValidateRulesMaxlength": 60
        },
        {
            "fieldName": "creationDate",
            "fieldType": "LocalDate",
            "fieldValidateRules": [
                "required"
            ]
        },
        {
            "fieldName": "updateDate",
            "fieldType": "LocalDate"
        },
        {
            "fieldName": "deleteDate",
            "fieldType": "LocalDate"
        }
    ],
    "changelogDate": "20200527205153",
    "entityTableName": "message",
    "dto": "no",
    "pagination": "pagination",
    "service": "serviceImpl",
    "jpaMetamodelFiltering": false,
    "angularJSSuffix": "mySuffix"
}