{
    "fluentMethods": true,
    "relationships": [
        {
            "relationshipType": "many-to-one",
            "relationshipName": "situation",
            "otherEntityName": "situation",
            "otherEntityField": "id"
        },
        {
            "relationshipType": "many-to-one",
            "relationshipName": "currency",
            "otherEntityName": "currency",
            "otherEntityField": "id"
        },
        {
            "relationshipType": "many-to-one",
            "relationshipName": "bank",
            "otherEntityName": "bank",
            "otherEntityField": "id"
        },
        {
            "relationshipType": "many-to-one",
            "relationshipName": "paymentOrigin",
            "otherEntityName": "paymentOrigin",
            "otherEntityField": "id"
        }
    ],
    "fields": [
        {
            "fieldName": "referenceNumber",
            "fieldType": "String",
            "fieldValidateRules": [
                "required",
                "maxlength"
            ],
            "fieldValidateRulesMaxlength": 15
        },
        {
            "fieldName": "cpf",
            "fieldType": "String",
            "fieldValidateRules": [
                "required",
                "maxlength"
            ],
            "fieldValidateRulesMaxlength": 15
        },
        {
            "fieldName": "taxpayerName",
            "fieldType": "String",
            "fieldValidateRules": [
                "required",
                "maxlength"
            ],
            "fieldValidateRulesMaxlength": 100
        },
        {
            "fieldName": "paymentLimitDate",
            "fieldType": "LocalDate",
            "fieldValidateRules": [
                "required"
            ]
        },
        {
            "fieldName": "taxNumber",
            "fieldType": "String",
            "fieldValidateRules": [
                "required",
                "maxlength"
            ],
            "fieldValidateRulesMaxlength": 5
        },
        {
            "fieldName": "taxDescription",
            "fieldType": "String",
            "fieldValidateRules": [
                "required",
                "maxlength"
            ],
            "fieldValidateRulesMaxlength": 100
        },
        {
            "fieldName": "amount",
            "fieldType": "BigDecimal",
            "fieldValidateRules": [
                "required",
                "max",
                "min"
            ],
            "fieldValidateRulesMax": 29,
            "fieldValidateRulesMin": 2
        },
        {
            "fieldName": "entityPaymentStatus",
            "fieldType": "String",
            "fieldValidateRules": [
                "required",
                "maxlength"
            ],
            "fieldValidateRulesMaxlength": 1
        },
        {
            "fieldName": "paymentDate",
            "fieldType": "LocalDate"
        },
        {
            "fieldName": "authenticationNumber",
            "fieldType": "String",
            "fieldValidateRules": [
                "maxlength"
            ],
            "fieldValidateRulesMaxlength": 60
        },
        {
            "fieldName": "conciliationDate",
            "fieldType": "LocalDate"
        },
        {
            "fieldName": "integrationDate",
            "fieldType": "LocalDate"
        },
        {
            "fieldName": "conciliatedSituation",
            "fieldType": "String",
            "fieldValidateRules": [
                "maxlength"
            ],
            "fieldValidateRulesMaxlength": 1
        },
        {
            "fieldName": "conciliatedSituationDate",
            "fieldType": "LocalDate"
        },
        {
            "fieldName": "creationDate",
            "fieldType": "LocalDate",
            "fieldValidateRules": [
                "required"
            ]
        },
        {
            "fieldName": "updateDate",
            "fieldType": "LocalDate"
        },
        {
            "fieldName": "deleteDate",
            "fieldType": "LocalDate"
        }
    ],
    "changelogDate": "20200527205150",
    "entityTableName": "pay_reference",
    "dto": "no",
    "pagination": "pagination",
    "service": "serviceImpl",
    "jpaMetamodelFiltering": false,
    "angularJSSuffix": "mySuffix"
}