{
    "fluentMethods": true,
    "relationships": [],
    "fields": [
        {
            "fieldName": "codigo",
            "fieldType": "String",
            "fieldValidateRules": [
                "required",
                "maxlength"
            ],
            "fieldValidateRulesMaxlength": 5
        },
        {
            "fieldName": "description",
            "fieldType": "String",
            "fieldValidateRules": [
                "required",
                "maxlength"
            ],
            "fieldValidateRulesMaxlength": 100
        },
        {
            "fieldName": "creationDate",
            "fieldType": "LocalDate",
            "fieldValidateRules": [
                "required"
            ]
        },
        {
            "fieldName": "updateDate",
            "fieldType": "LocalDate"
        },
        {
            "fieldName": "deleteDate",
            "fieldType": "LocalDate"
        }
    ],
    "changelogDate": "20200527205154",
    "entityTableName": "situation",
    "dto": "no",
    "pagination": "pagination",
    "service": "serviceImpl",
    "jpaMetamodelFiltering": false,
    "angularJSSuffix": "mySuffix"
}